/home/e20190005507/L3/HAI501I/TP6PRES/tp6pres_agl/tpMocks/src/main/java/pres/AjoutImpossibleException.java
/home/e20190005507/L3/HAI501I/TP6PRES/tp6pres_agl/tpMocks/src/main/java/pres/IncorrectIsbnException.java
/home/e20190005507/L3/HAI501I/TP6PRES/tp6pres_agl/tpMocks/src/main/java/pres/Bibliothèque.java
/home/e20190005507/L3/HAI501I/TP6PRES/tp6pres_agl/tpMocks/src/main/java/pres/GlobalBibliographyAccess.java
/home/e20190005507/L3/HAI501I/TP6PRES/tp6pres_agl/tpMocks/src/main/java/pres/BibliUtilities.java
/home/e20190005507/L3/HAI501I/TP6PRES/tp6pres_agl/tpMocks/src/main/java/pres/IGlobalBibliographyAccess.java
/home/e20190005507/L3/HAI501I/TP6PRES/tp6pres_agl/tpMocks/src/main/java/pres/NoticeBibliographique.java
/home/e20190005507/L3/HAI501I/TP6PRES/tp6pres_agl/tpMocks/src/main/java/pres/NoticeStatus.java
